…
Loading the Bam files
=====================

``` r
#loading libraries

combined_gene_sf <- file.path("/Users/Louis-Alexandre/Desktop/STAT\ 540\ Project\ Sequencing\ Data/RNA\ seq\ round\ 1/2017-01-30_yeast/combined.gene.sf.tpm")
genedata <- read.table(combined_gene_sf)
genedata %>%
  as_tibble()
```

    ## # A tibble: 6,693 x 10
    ##    V1      V2      V3       V4      V5      V6     V7    V8    V9    V10  
    ##    <fct>   <fct>   <fct>    <fct>   <fct>   <fct>  <fct> <fct> <fct> <fct>
    ##  1 gene_id K335N1  K335N2   K335N3  P369E1  P369E2 P369… WT1   WT2   WT3  
    ##  2 Q0010   21.5097 25.7552  23.1459 82.111  82.87… 68.3… 23.9… 32.2… 29.4…
    ##  3 Q0017   55.1604 82.3234  69.8019 199.405 264.3… 290.… 58.8… 64.4… 99.4…
    ##  4 Q0032   1.50128 2.18501  2.0338  14.8162 14.55… 12.9… 2.24… 3.79… 2.95…
    ##  5 Q0045   56.1937 42.4625  51.8916 63.9759 61.05… 65.6… 54.9… 38.2… 36.4…
    ##  6 Q0050   324.732 320.425  361.093 437.584 419.4… 446.… 316.… 287.… 280.…
    ##  7 Q0055   162.085 149.234  163.025 199.698 192.2… 197.… 153.9 134.… 132.…
    ##  8 Q0060   4.26592 4.71197  4.92962 9.06441 10.13… 11.2… 4.69… 4.15… 5.40…
    ##  9 Q0065   25.3249 25.4588  27.3347 29.9324 30.37… 36.8… 24.9… 21.5… 22.4…
    ## 10 Q0070   1.07462 0.860935 1.5594  2.03596 2.272… 2.66… 0.94… 0.67… 0.72…
    ## # ... with 6,683 more rows
…
### Filtering the intron containing genes

Instead of loading the intron containing genes one by one, I downloaded the Ares database.

``` r
intronlist <- file.path("http://intron.ucsc.edu/yeast4.1/yeastbasic.txt")
introndata <- read.table(intronlist)
introndata %>%
  as_tibble()
```

    ## # A tibble: 298 x 6
    ##    V1                         V2      V3        V4     V5 V6              
    ##    <fct>                      <fct>   <fct>  <int>  <int> <fct>           
    ##  1 SNR17A_chr15_780120_780277 SNR17A  chr15 780120 780277 GTATGTAATATACCC…
    ##  2 SNR17B_chr16_281502_281372 SNR17B  chr16 281502 281372 GTATGTTTTATACCA…
    ##  3 YAL001C_chr1_151097_151007 YAL001C chr1  151097 151007 GTATGTTCATGTCTC…
    ##  4 YAL003W_chr1_142255_142621 YAL003W chr1  142255 142621 GTATGTTCCGATTTA…
    ##  5 YAL030W_chr1_87389_87502   YAL030W chr1   87389  87502 GTAAGTACAGAAAGC…
    ##  6 YBL018C_chr2_186389_186314 YBL018C chr2  186389 186314 GTATGTATATTTTTG…
    ##  7 YBL026W_chr2_170638_170766 YBL026W chr2  170638 170766 GTATGTTCATAATGA…
    ##  8 YBL027W_chr2_168386_168770 YBL027W chr2  168386 168770 GTATGTTTAACAGTG…
    ##  9 YBL040C_chr2_142808_142711 YBL040C chr2  142808 142711 GTATGTTACTATTTG…
    ## 10 YBL050W_chr2_125116_125232 YBL050W chr2  125116 125232 GTATGTAGTAGGGAA…
    ## # ... with 288 more rows

Filtering the Ares database with the RNA-seq data, we now have a dataset of only intron containing genes. We can check for intron retention, and expression using differential gene expression analysis on this set rather than the whole genome.

``` r
intronrnaseq <- genedata %>%
  filter(Gene_ID %in% introndata$V2)
intronrnaseq %>%
  as_tibble()
```

    ## # A tibble: 278 x 10
    ##    Gene_ID   K335N1  K335N2  K335N3 P369E1 P369E2 P369E3 WT1   WT2   WT3  
    ##    <fct>     <fct>   <fct>   <fct>  <fct>  <fct>  <fct>  <fct> <fct> <fct>
    ##  1 YAL001C   9.126   9.59261 9.799… 9.707… 9.515… 10.47… 9.49… 9.67… 10.5…
    ##  2 YAL003W   1791.68 2152.02 2088.… 1672.… 1980.… 1944.… 1637… 2153… 2145…
    ##  3 YAL030W   52.9617 41.4821 46.34… 52.31… 47.59… 47.55… 48.1… 46.1… 47.1…
    ##  4 YBL018C   48.0539 41.8079 45.14… 69.40… 58.91… 59.64… 49.3… 42.1… 42.9…
    ##  5 YBL026W   273.991 246.724 246.2… 446.0… 360.8… 366.4… 281.… 233.… 226.…
    ##  6 YBL027W   2009.2  2212.03 2201.… 3442.… 3687.… 3431.… 1921… 2251… 2217…
    ##  7 YBL040C   56.4636 53.3105 52.06… 87.14… 81.10… 82.79… 53.6… 50.3… 52.4…
    ##  8 YBL050W   33.4837 32.793  36.19… 63.72… 65.24… 64.39… 33.2… 36.0… 33.9…
    ##  9 YBL059C-A 44.1476 41.4215 35.18… 82.01… 66.52… 71.76… 48.7… 42.0… 44.2…
    ## 10 YBL059W   11.5659 10.7594 10.77… 22.94… 18.88… 21.17… 12.2… 10.9… 12.2…
    ## # ... with 268 more rows
…
